  
       XFOIL         Version 6.99
  
 Calculated polar for: NACA 2332                                       
  
 1 1 Reynolds number fixed          Mach number fixed         
  
 xtrf =   1.000 (top)        1.000 (bottom)  
 Mach =   0.000     Re =     3.000 e 6     Ncrit =   9.000
  
   alpha    CL        CD       CDp       CM     Top_Xtr  Bot_Xtr
  ------ -------- --------- --------- -------- -------- --------
 -19.500  -1.2085   0.05262   0.04860  -0.0857   0.9939   0.0943
 -19.000  -1.1855   0.04862   0.04453  -0.0882   0.9903   0.0959
 -18.500  -1.1774   0.04476   0.04063  -0.0877   0.9804   0.0988
 -18.000  -1.1659   0.04138   0.03719  -0.0869   0.9671   0.1012
 -17.500  -1.1507   0.03835   0.03406  -0.0859   0.9502   0.1030
 -17.000  -1.1374   0.03513   0.03074  -0.0849   0.9306   0.1061
 -16.500  -1.1193   0.03225   0.02777  -0.0841   0.9107   0.1089
 -16.000  -1.0898   0.03020   0.02562  -0.0837   0.8909   0.1108
 -15.500  -1.0680   0.02765   0.02298  -0.0829   0.8695   0.1147
 -15.000  -1.0410   0.02550   0.02074  -0.0822   0.8473   0.1177
 -14.500  -1.0081   0.02380   0.01893  -0.0817   0.8250   0.1204
 -14.000  -0.9787   0.02197   0.01702  -0.0808   0.8019   0.1246
 -13.500  -0.9440   0.02049   0.01544  -0.0801   0.7782   0.1275
 -13.000  -0.9106   0.01906   0.01393  -0.0791   0.7539   0.1321
 -12.500  -0.8734   0.01789   0.01267  -0.0783   0.7283   0.1359
 -12.000  -0.8372   0.01674   0.01144  -0.0772   0.7047   0.1404
 -11.500  -0.7976   0.01580   0.01045  -0.0762   0.6855   0.1449
 -11.000  -0.7578   0.01492   0.00952  -0.0751   0.6670   0.1495
 -10.500  -0.7176   0.01413   0.00868  -0.0739   0.6477   0.1549
 -10.000  -0.6752   0.01349   0.00798  -0.0728   0.6299   0.1594
  -9.500  -0.6338   0.01282   0.00730  -0.0715   0.6150   0.1658
  -9.000  -0.5900   0.01232   0.00674  -0.0703   0.5966   0.1711
  -8.500  -0.5477   0.01183   0.00622  -0.0688   0.5783   0.1779
  -8.000  -0.5034   0.01141   0.00577  -0.0674   0.5643   0.1842
  -7.500  -0.4592   0.01105   0.00538  -0.0659   0.5476   0.1913
  -7.000  -0.4163   0.01072   0.00501  -0.0641   0.5322   0.1988
  -6.500  -0.3706   0.01045   0.00473  -0.0626   0.5178   0.2057
  -6.000  -0.3294   0.01018   0.00444  -0.0603   0.5015   0.2150
  -5.500  -0.2839   0.01000   0.00423  -0.0586   0.4891   0.2220
  -5.000  -0.2440   0.00977   0.00401  -0.0558   0.4752   0.2326
  -4.500  -0.2043   0.00965   0.00385  -0.0528   0.4601   0.2421
  -4.000  -0.1688   0.00952   0.00373  -0.0490   0.4503   0.2513
  -3.500  -0.1461   0.00950   0.00369  -0.0424   0.4357   0.2628
  -3.000  -0.1069   0.00942   0.00362  -0.0391   0.4270   0.2735
  -2.500  -0.0714   0.00936   0.00356  -0.0351   0.4143   0.2867
  -2.000  -0.0352   0.00924   0.00349  -0.0312   0.4054   0.3036
  -1.500  -0.0098   0.00913   0.00341  -0.0252   0.3945   0.3237
  -1.000   0.0197   0.00900   0.00335  -0.0199   0.3880   0.3453
  -0.500   0.0566   0.00900   0.00337  -0.0163   0.3765   0.3662
   0.000   0.1016   0.00896   0.00341  -0.0143   0.3716   0.3867
   0.500   0.1449   0.00903   0.00351  -0.0120   0.3635   0.4054
   1.000   0.1927   0.00911   0.00361  -0.0107   0.3561   0.4216
   1.500   0.2428   0.00920   0.00373  -0.0098   0.3514   0.4341
   2.000   0.2888   0.00936   0.00392  -0.0082   0.3443   0.4517
   2.500   0.3391   0.00951   0.00409  -0.0075   0.3387   0.4659
   3.000   0.3910   0.00963   0.00426  -0.0071   0.3351   0.4796
   3.500   0.4387   0.00985   0.00451  -0.0061   0.3301   0.4963
   4.000   0.4870   0.01016   0.00481  -0.0052   0.3227   0.5080
   4.500   0.5400   0.01030   0.00504  -0.0052   0.3207   0.5272
   5.000   0.5894   0.01058   0.00536  -0.0046   0.3170   0.5431
   5.500   0.6376   0.01094   0.00573  -0.0040   0.3116   0.5583
   6.000   0.6862   0.01129   0.00614  -0.0035   0.3059   0.5801
   6.500   0.7360   0.01161   0.00655  -0.0032   0.3034   0.6020
   7.000   0.7845   0.01201   0.00701  -0.0028   0.2987   0.6252
   7.500   0.8295   0.01259   0.00760  -0.0020   0.2917   0.6421
   8.000   0.8773   0.01307   0.00818  -0.0017   0.2886   0.6658
   8.500   0.9245   0.01362   0.00878  -0.0014   0.2839   0.6885
   9.000   0.9648   0.01448   0.00967  -0.0003   0.2768   0.7090
   9.500   1.0121   0.01508   0.01035  -0.0001   0.2736   0.7310
  10.000   1.0546   0.01591   0.01126   0.0005   0.2683   0.7586
  10.500   1.0932   0.01697   0.01238   0.0015   0.2619   0.7863
  11.000   1.1375   0.01779   0.01330   0.0017   0.2582   0.8155
  11.500   1.1719   0.01912   0.01471   0.0029   0.2523   0.8451
  12.000   1.2101   0.02029   0.01598   0.0037   0.2474   0.8744
  12.500   1.2448   0.02167   0.01747   0.0047   0.2428   0.9055
  13.000   1.2701   0.02353   0.01940   0.0068   0.2361   0.9356
  13.500   1.3027   0.02488   0.02084   0.0083   0.2327   0.9615
  14.000   1.3237   0.02701   0.02300   0.0106   0.2274   0.9832
  14.500   1.3587   0.02900   0.02500   0.0103   0.2222   0.9930
  15.000   1.3958   0.03137   0.02739   0.0088   0.2174   0.9984
  15.500   1.4137   0.03430   0.03032   0.0098   0.2112   1.0000
  16.000   1.4397   0.03644   0.03249   0.0106   0.2077   1.0000
  16.500   1.4510   0.03980   0.03586   0.0119   0.2019   1.0000
  17.000   1.4664   0.04301   0.03911   0.0127   0.1979   1.0000
  17.500   1.4755   0.04679   0.04292   0.0136   0.1931   1.0000
  18.000   1.4816   0.05087   0.04705   0.0145   0.1879   1.0000
  18.500   1.4948   0.05443   0.05064   0.0148   0.1837   1.0000
  19.000   1.4891   0.05969   0.05594   0.0156   0.1779   1.0000
  19.500   1.4934   0.06419   0.06051   0.0158   0.1745   1.0000
  20.000   1.4812   0.07025   0.06661   0.0162   0.1688   1.0000
