  
       XFOIL         Version 6.99
  
 Calculated polar for: NACA 2341                                       
  
 1 1 Reynolds number fixed          Mach number fixed         
  
 xtrf =   1.000 (top)        1.000 (bottom)  
 Mach =   0.000     Re =    50.000 e 6     Ncrit =   9.000
  
   alpha    CL        CD       CDp       CM     Top_Xtr  Bot_Xtr
  ------ -------- --------- --------- -------- -------- --------
 -19.000  -1.2288   0.03995   0.03588  -0.0756   0.5266   0.1005
 -18.500  -1.1992   0.03794   0.03384  -0.0759   0.5203   0.1037
 -18.000  -1.1885   0.03464   0.03048  -0.0752   0.5078   0.1059
 -17.500  -1.1521   0.03304   0.02887  -0.0758   0.5027   0.1069
 -17.000  -1.1311   0.03042   0.02621  -0.0755   0.4990   0.1083
 -16.500  -1.0974   0.02880   0.02456  -0.0756   0.4871   0.1116
 -15.500  -1.0344   0.02512   0.02081  -0.0756   0.4700   0.1143
 -15.000  -1.0085   0.02301   0.01867  -0.0750   0.4587   0.1178
 -14.500  -0.9707   0.02172   0.01738  -0.0750   0.4543   0.1207
 -14.000  -0.9270   0.02067   0.01630  -0.0756   0.4400   0.1218
 -13.500  -0.8940   0.01908   0.01468  -0.0751   0.4356   0.1243
 -13.000  -0.8531   0.01802   0.01361  -0.0752   0.4230   0.1283
 -12.500  -0.8188   0.01663   0.01219  -0.0746   0.4170   0.1296
 -12.000  -0.7708   0.01596   0.01149  -0.0751   0.4071   0.1324
 -11.500  -0.7384   0.01464   0.01016  -0.0740   0.3982   0.1364
 -11.000  -0.6900   0.01404   0.00954  -0.0744   0.3914   0.1380
 -10.500  -0.6403   0.01350   0.00898  -0.0750   0.3803   0.1414
 -10.000  -0.6063   0.01248   0.00796  -0.0735   0.3762   0.1457
  -9.500  -0.5555   0.01209   0.00754  -0.0740   0.3646   0.1469
  -9.000  -0.5058   0.01164   0.00709  -0.0743   0.3613   0.1516
  -8.500  -0.4697   0.01094   0.00637  -0.0726   0.3529   0.1554
  -8.000  -0.4172   0.01064   0.00607  -0.0731   0.3461   0.1567
  -7.500  -0.3698   0.01026   0.00569  -0.0729   0.3429   0.1631
  -7.000  -0.3313   0.00983   0.00524  -0.0711   0.3353   0.1655
  -6.500  -0.2798   0.00960   0.00501  -0.0712   0.3303   0.1694
  -6.000  -0.2330   0.00931   0.00474  -0.0706   0.3284   0.1750
  -5.500  -0.1939   0.00905   0.00447  -0.0685   0.3233   0.1766
  -5.000  -0.1476   0.00887   0.00429  -0.0676   0.3177   0.1831
  -4.500  -0.1002   0.00870   0.00413  -0.0668   0.3153   0.1865
  -4.000  -0.0553   0.00855   0.00400  -0.0655   0.3143   0.1914
  -3.500  -0.0259   0.00836   0.00382  -0.0612   0.3108   0.1971
  -3.000   0.0141   0.00833   0.00378  -0.0587   0.3058   0.1990
  -2.500   0.0284   0.00821   0.00367  -0.0512   0.3013   0.2054
  -1.500  -0.0948   0.00821   0.00368  -0.0054   0.3008   0.2094
  -1.000  -0.0520   0.00820   0.00369  -0.0035   0.2998   0.2127
  -0.500  -0.0134   0.00821   0.00370  -0.0008   0.2953   0.2208
   0.000   0.0202   0.00835   0.00385   0.0028   0.2898   0.2230
   0.500   0.0693   0.00837   0.00388   0.0034   0.2872   0.2321
   1.000   0.1200   0.00842   0.00395   0.0037   0.2851   0.2363
   1.500   0.1672   0.00854   0.00408   0.0045   0.2796   0.2452
   2.000   0.2073   0.00876   0.00432   0.0065   0.2745   0.2503
   2.500   0.2613   0.00885   0.00444   0.0059   0.2735   0.2596
   3.000   0.3115   0.00905   0.00463   0.0060   0.2690   0.2654
   3.500   0.3629   0.00924   0.00484   0.0058   0.2627   0.2764
   4.000   0.4068   0.00958   0.00521   0.0068   0.2615   0.2818
   5.000   0.5090   0.01011   0.00578   0.0061   0.2523   0.3084
   5.500   0.5632   0.01034   0.00605   0.0051   0.2497   0.3213
   6.000   0.6047   0.01092   0.00667   0.0060   0.2473   0.3326
   7.000   0.7080   0.01170   0.00749   0.0046   0.2383   0.3570
   7.500   0.7492   0.01247   0.00830   0.0052   0.2365   0.3688
   8.000   0.7967   0.01310   0.00893   0.0048   0.2312   0.3746
   8.500   0.8490   0.01357   0.00942   0.0037   0.2273   0.3878
   9.000   0.8892   0.01458   0.01045   0.0041   0.2258   0.3911
   9.500   0.9342   0.01537   0.01125   0.0038   0.2209   0.4054
  10.000   0.9838   0.01600   0.01189   0.0029   0.2166   0.4113
  11.000   1.0638   0.01821   0.01416   0.0030   0.2108   0.4326
  11.500   1.1098   0.01908   0.01503   0.0023   0.2062   0.4393
  12.000   1.1443   0.02060   0.01661   0.0026   0.2050   0.4542
  12.500   1.1839   0.02177   0.01777   0.0025   0.2008   0.4650
  13.000   1.2112   0.02369   0.01975   0.0033   0.1961   0.4808
  13.500   1.2571   0.02464   0.02075   0.0023   0.1951   0.5017
  14.000   1.2767   0.02706   0.02320   0.0036   0.1914   0.5081
  14.500   1.3151   0.02842   0.02458   0.0032   0.1865   0.5239
  15.000   1.3569   0.02960   0.02579   0.0023   0.1855   0.5325
  15.500   1.3710   0.03246   0.02868   0.0037   0.1820   0.5405
  16.000   1.4044   0.03416   0.03041   0.0034   0.1771   0.5564
  16.500   1.4233   0.03688   0.03317   0.0040   0.1761   0.5606
  17.000   1.4503   0.03897   0.03527   0.0041   0.1727   0.5735
  17.500   1.4588   0.04238   0.03875   0.0052   0.1681   0.5872
  18.000   1.4927   0.04418   0.04057   0.0044   0.1670   0.5936
