  
       XFOIL         Version 6.99
  
 Calculated polar for: NACA 2390                                       
  
 1 1 Reynolds number fixed          Mach number fixed         
  
 xtrf =   1.000 (top)        1.000 (bottom)  
 Mach =   0.000     Re =    50.000 e 6     Ncrit =   9.000
  
   alpha    CL        CD       CDp       CM     Top_Xtr  Bot_Xtr
  ------ -------- --------- --------- -------- -------- --------
 -18.500   0.9743   0.10596   0.10140  -0.0733   0.3488   0.2160
 -18.000   1.0201   0.10489   0.10033  -0.0809   0.3480   0.2190
 -17.500   1.0568   0.10354   0.09897  -0.0873   0.3459   0.2217
 -17.000   1.0470   0.10013   0.09554  -0.0881   0.3435   0.2242
 -16.500   1.0923   0.09936   0.09475  -0.0955   0.3401   0.2245
 -16.000   1.1342   0.09846   0.09383  -0.1025   0.3376   0.2248
 -15.000   1.1478   0.09405   0.08944  -0.1076   0.3365   0.2327
 -13.000   0.9796   0.09367   0.08918  -0.0794   0.3287   0.2407
 -11.500   0.9316   0.09265   0.08823  -0.0741   0.3262   0.2437
 -11.000   0.8498   0.09177   0.08739  -0.0638   0.3258   0.2482
  -9.500   0.7277   0.08839   0.08405  -0.0524   0.3215   0.2531
  -9.000   0.6970   0.09036   0.08606  -0.0491   0.3190   0.2554
  -8.500   0.7064   0.08985   0.08558  -0.0522   0.3173   0.2584
  -7.000   0.5881   0.08627   0.08204  -0.0442   0.3157   0.2630
  -6.500   0.5015   0.08558   0.08137  -0.0358   0.3154   0.2661
  -6.000   0.5039   0.08528   0.08109  -0.0384   0.3146   0.2692
  -5.000   0.3632   0.08329   0.07911  -0.0264   0.3119   0.2728
  -4.000   0.3112   0.08494   0.08080  -0.0248   0.3083   0.2747
  -3.000   0.2050   0.08404   0.07993  -0.0173   0.3057   0.2809
  -2.000   0.0774   0.08483   0.08077  -0.0074   0.3054   0.2833
  -1.500   0.0112   0.08328   0.07920  -0.0022   0.3052   0.2836
  -1.000   0.0180   0.08316   0.07909  -0.0055   0.3048   0.2865
   0.500  -0.2193   0.08302   0.07894   0.0153   0.2994   0.2936
   1.000  -0.2730   0.08100   0.07687   0.0195   0.2972   0.2941
   1.500  -0.3093   0.08331   0.07921   0.0213   0.2957   0.2946
   2.000  -0.3546   0.08087   0.07673   0.0249   0.2955   0.2980
   2.500  -0.4001   0.08301   0.07891   0.0280   0.2952   0.3006
   3.000  -0.4491   0.08038   0.07625   0.0326   0.2947   0.3035
   4.000  -0.5488   0.08170   0.07752   0.0411   0.2902   0.3053
   4.500  -0.5911   0.08417   0.08001   0.0442   0.2868   0.3086
   5.000  -0.6339   0.08197   0.07778   0.0490   0.2859   0.3125
   7.000  -0.7852   0.08385   0.07959   0.0646   0.2808   0.3183
   7.500  -0.8280   0.08646   0.08221   0.0686   0.2768   0.3216
   8.500  -0.9024   0.08675   0.08249   0.0789   0.2759   0.3269
   9.000  -0.8795   0.08697   0.08270   0.0750   0.2751   0.3276
