  
       XFOIL         Version 6.97
  
 Calculated polar for: DU 93-W-210.lm	                                 
  
 1 1 Reynolds number fixed          Mach number fixed         
  
 xtrf =   1.000 (top)        1.000 (bottom)  
 Mach =   0.000     Re =     3.000 e 6     Ncrit =   9.000
  
   alpha    CL        CD       CDp       CM     Top_Xtr  Bot_Xtr
  ------ -------- --------- --------- -------- -------- --------
 -19.500  -1.1404   0.05558   0.05181  -0.1010   0.9792   0.1117
 -19.000  -1.1399   0.05105   0.04719  -0.1009   0.9691   0.1142
 -18.500  -1.1344   0.04694   0.04301  -0.1008   0.9618   0.1170
 -18.000  -1.1323   0.04273   0.03872  -0.1003   0.9497   0.1203
 -17.500  -1.1181   0.03933   0.03524  -0.1003   0.9403   0.1228
 -17.000  -1.1097   0.03564   0.03147  -0.0999   0.9264   0.1265
 -16.500  -1.0960   0.03238   0.02810  -0.0994   0.9105   0.1299
 -16.000  -1.0742   0.02966   0.02530  -0.0994   0.8995   0.1324
 -15.500  -1.0572   0.02678   0.02235  -0.0987   0.8845   0.1370
 -15.000  -1.0274   0.02480   0.02030  -0.0986   0.8719   0.1402
 -14.500  -1.0022   0.02256   0.01800  -0.0980   0.8585   0.1446
 -14.000  -0.9740   0.02063   0.01600  -0.0974   0.8424   0.1487
 -13.500  -0.9409   0.01900   0.01432  -0.0970   0.8312   0.1527
 -13.000  -0.9079   0.01753   0.01280  -0.0963   0.8153   0.1577
 -12.500  -0.8703   0.01633   0.01155  -0.0958   0.8030   0.1615
 -12.000  -0.8363   0.01505   0.01023  -0.0947   0.7888   0.1673
 -11.000  -0.7569   0.01324   0.00836  -0.0930   0.7604   0.1777
 -10.500  -0.7145   0.01259   0.00763  -0.0921   0.7433   0.1819
 -10.000  -0.6740   0.01188   0.00691  -0.0909   0.7288   0.1889
  -9.500  -0.6305   0.01136   0.00634  -0.0898   0.7134   0.1936
  -9.000  -0.5890   0.01086   0.00581  -0.0882   0.6946   0.2010
  -8.500  -0.5451   0.01050   0.00539  -0.0869   0.6754   0.2060
  -8.000  -0.5033   0.01011   0.00498  -0.0851   0.6572   0.2138
  -7.500  -0.4595   0.00987   0.00467  -0.0834   0.6375   0.2192
  -7.000  -0.4195   0.00959   0.00437  -0.0809   0.6170   0.2274
  -6.500  -0.3779   0.00943   0.00415  -0.0785   0.5978   0.2330
  -5.500  -0.3142   0.00919   0.00385  -0.0696   0.5663   0.2473
  -5.000  -0.2771   0.00909   0.00372  -0.0660   0.5508   0.2560
  -4.500  -0.2378   0.00904   0.00364  -0.0628   0.5358   0.2627
  -4.000  -0.1982   0.00892   0.00353  -0.0597   0.5238   0.2720
  -3.500  -0.1619   0.00890   0.00346  -0.0559   0.5078   0.2789
  -3.000  -0.1345   0.00877   0.00335  -0.0501   0.4986   0.2881
  -2.500  -0.1014   0.00876   0.00331  -0.0456   0.4846   0.2956
  -2.000  -0.0597   0.00871   0.00327  -0.0429   0.4743   0.3058
  -1.500  -0.0147   0.00876   0.00329  -0.0409   0.4617   0.3138
  -1.000   0.0295   0.00879   0.00334  -0.0387   0.4507   0.3254
  -0.500   0.0776   0.00888   0.00341  -0.0373   0.4395   0.3332
   0.000   0.1251   0.00895   0.00349  -0.0359   0.4281   0.3464
   0.500   0.1748   0.00907   0.00360  -0.0349   0.4180   0.3545
   1.000   0.2210   0.00921   0.00375  -0.0334   0.4065   0.3685
   1.500   0.2725   0.00935   0.00389  -0.0328   0.3974   0.3787
   2.000   0.3208   0.00954   0.00409  -0.0317   0.3857   0.3918
   2.500   0.3704   0.00974   0.00430  -0.0309   0.3775   0.4043
   3.000   0.4183   0.01002   0.00457  -0.0299   0.3661   0.4160
   3.500   0.4699   0.01021   0.00480  -0.0295   0.3584   0.4309
   4.000   0.5159   0.01061   0.00517  -0.0282   0.3474   0.4409
   4.500   0.5663   0.01087   0.00549  -0.0278   0.3401   0.4585
   5.000   0.6137   0.01129   0.00589  -0.0269   0.3295   0.4712
   5.500   0.6620   0.01166   0.00631  -0.0262   0.3225   0.4871
   6.000   0.7072   0.01219   0.00683  -0.0252   0.3124   0.5032
   6.500   0.7570   0.01261   0.00728  -0.0248   0.3057   0.5160
   7.000   0.7992   0.01328   0.00797  -0.0235   0.2961   0.5357
   7.500   0.8472   0.01381   0.00853  -0.0231   0.2897   0.5508
   8.000   0.8895   0.01455   0.00929  -0.0219   0.2804   0.5684
   8.500   0.9344   0.01525   0.01005  -0.0212   0.2743   0.5873
   9.000   0.9764   0.01612   0.01090  -0.0201   0.2655   0.6000
   9.500   1.0185   0.01701   0.01186  -0.0193   0.2595   0.6217
  10.000   1.0582   0.01804   0.01288  -0.0182   0.2514   0.6341
  10.500   1.0982   0.01910   0.01401  -0.0172   0.2454   0.6562
  11.000   1.1359   0.02031   0.01525  -0.0161   0.2379   0.6758
  12.000   1.2088   0.02298   0.01805  -0.0140   0.2251   0.7261
  13.000   1.2761   0.02606   0.02140  -0.0118   0.2130   0.8140
  13.500   1.3043   0.02794   0.02348  -0.0103   0.2069   0.8796
  14.000   1.3272   0.02966   0.02543  -0.0073   0.2017   0.9641
  14.500   1.3551   0.03195   0.02775  -0.0066   0.1953   1.0000
  15.000   1.3805   0.03435   0.03016  -0.0055   0.1906   1.0000
  15.500   1.4009   0.03709   0.03290  -0.0042   0.1842   1.0000
  16.000   1.4255   0.03961   0.03544  -0.0034   0.1801   1.0000
  16.500   1.4376   0.04312   0.03895  -0.0019   0.1740   1.0000
  17.000   1.4569   0.04618   0.04206  -0.0012   0.1703   1.0000
  17.500   1.4686   0.04983   0.04572  -0.0001   0.1649   1.0000
  18.000   1.4828   0.05338   0.04930   0.0006   0.1608   1.0000
  18.500   1.4887   0.05770   0.05366   0.0015   0.1562   1.0000
  19.000   1.4921   0.06228   0.05828   0.0022   0.1516   1.0000
  19.500   1.4976   0.06677   0.06283   0.0026   0.1478   1.0000
  20.000   1.4941   0.07211   0.06821   0.0031   0.1427   1.0000
 -19.000  -1.2183   0.06880   0.06497  -0.0571   1.0000   0.0118
 -18.500  -1.2146   0.06324   0.05933  -0.0590   1.0000   0.0121
 -18.000  -1.2075   0.05821   0.05423  -0.0606   1.0000   0.0124
 -17.500  -1.1971   0.05360   0.04955  -0.0621   1.0000   0.0127
 -17.000  -1.1843   0.04934   0.04523  -0.0633   1.0000   0.0129
 -16.500  -1.1690   0.04540   0.04122  -0.0644   1.0000   0.0132
 -16.000  -1.1511   0.04178   0.03755  -0.0654   1.0000   0.0133
 -15.500  -1.1369   0.03794   0.03364  -0.0662   1.0000   0.0140
 -15.000  -1.1192   0.03451   0.03017  -0.0668   1.0000   0.0147
 -14.500  -1.0918   0.03144   0.02706  -0.0686   0.9837   0.0153
 -14.000  -1.0630   0.02901   0.02434  -0.0694   0.8916   0.0158
 -13.500  -1.0379   0.02661   0.02173  -0.0697   0.8417   0.0164
 -13.000  -1.0127   0.02416   0.01913  -0.0701   0.8013   0.0177
 -12.500  -0.9821   0.02205   0.01689  -0.0707   0.7691   0.0187
 -12.000  -0.9522   0.01994   0.01468  -0.0712   0.7434   0.0206
 -11.500  -0.9142   0.01804   0.01271  -0.0729   0.7220   0.0233
 -11.000  -0.8661   0.01615   0.01080  -0.0764   0.7038   0.0286
 -10.500  -0.8106   0.01438   0.00902  -0.0809   0.6885   0.0378
 -10.000  -0.7493   0.01292   0.00757  -0.0857   0.6730   0.0480
  -9.500  -0.6842   0.01171   0.00635  -0.0905   0.6581   0.0588
  -9.000  -0.6199   0.01086   0.00552  -0.0942   0.6478   0.0702
  -8.500  -0.5564   0.01013   0.00482  -0.0974   0.6351   0.0868
  -8.000  -0.4919   0.00933   0.00412  -0.1007   0.6246   0.1147
  -7.500  -0.4263   0.00847   0.00344  -0.1043   0.6143   0.1608
  -7.000  -0.3599   0.00761   0.00281  -0.1079   0.6052   0.2213
  -6.500  -0.2936   0.00689   0.00232  -0.1112   0.5957   0.2850
  -6.000  -0.2292   0.00655   0.00206  -0.1135   0.5878   0.3201
  -5.500  -0.1659   0.00639   0.00191  -0.1154   0.5784   0.3409
  -5.000  -0.1022   0.00620   0.00176  -0.1173   0.5736   0.3617
  -4.500  -0.0392   0.00610   0.00166  -0.1190   0.5659   0.3791
  -4.000   0.0243   0.00594   0.00156  -0.1209   0.5586   0.4053
  -3.500   0.0873   0.00587   0.00150  -0.1225   0.5539   0.4187
  -3.000   0.1497   0.00586   0.00146  -0.1239   0.5473   0.4292
  -2.500   0.2123   0.00584   0.00144  -0.1255   0.5406   0.4419
  -2.000   0.2749   0.00581   0.00142  -0.1269   0.5366   0.4515
  -1.500   0.3371   0.00582   0.00142  -0.1283   0.5310   0.4614
  -1.000   0.3990   0.00587   0.00145  -0.1297   0.5229   0.4704
  -0.500   0.4613   0.00586   0.00147  -0.1311   0.5200   0.4788
   0.000   0.5232   0.00590   0.00150  -0.1323   0.5148   0.4857
   0.500   0.5846   0.00596   0.00156  -0.1336   0.5074   0.4941
   1.000   0.6461   0.00602   0.00161  -0.1348   0.5030   0.4989
   1.500   0.7078   0.00605   0.00167  -0.1361   0.4984   0.5070
   2.000   0.7687   0.00615   0.00176  -0.1372   0.4912   0.5134
   2.500   0.8294   0.00624   0.00185  -0.1382   0.4854   0.5172
   3.000   0.8905   0.00630   0.00194  -0.1394   0.4798   0.5246
   3.500   0.9503   0.00645   0.00208  -0.1403   0.4693   0.5309
   4.000   1.0104   0.00657   0.00219  -0.1413   0.4597   0.5348
   4.500   1.0693   0.00678   0.00235  -0.1421   0.4418   0.5406
   5.000   1.1267   0.00709   0.00258  -0.1426   0.4164   0.5472
   5.500   1.1841   0.00737   0.00281  -0.1431   0.3971   0.5521
   6.000   1.2386   0.00787   0.00315  -0.1431   0.3641   0.5554
   6.500   1.2876   0.00873   0.00376  -0.1423   0.3063   0.5631
   7.000   1.3304   0.00997   0.00462  -0.1405   0.2357   0.5686
   7.500   1.3688   0.01133   0.00561  -0.1379   0.1675   0.5723
   8.000   1.4046   0.01265   0.00663  -0.1350   0.1153   0.5776
   8.500   1.4389   0.01384   0.00765  -0.1317   0.0809   0.5842
   9.000   1.4619   0.01501   0.00870  -0.1263   0.0583   0.5891
   9.500   1.4878   0.01627   0.00990  -0.1219   0.0450   0.5921
  10.000   1.5166   0.01758   0.01121  -0.1184   0.0382   0.5991
  10.500   1.5450   0.01907   0.01274  -0.1153   0.0341   0.6050
  11.000   1.5713   0.02088   0.01457  -0.1125   0.0309   0.6093
  11.500   1.5977   0.02289   0.01661  -0.1100   0.0289   0.6122
  12.000   1.6215   0.02527   0.01906  -0.1078   0.0269   0.6202
  12.500   1.6446   0.02785   0.02171  -0.1059   0.0257   0.6257
  13.000   1.6624   0.03098   0.02489  -0.1038   0.0241   0.6295
  13.500   1.6796   0.03425   0.02823  -0.1019   0.0230   0.6332
  14.000   1.6950   0.03775   0.03181  -0.1001   0.0221   0.6404
  14.500   1.7053   0.04185   0.03599  -0.0984   0.0209   0.6456
  15.000   1.7152   0.04608   0.04029  -0.0968   0.0199   0.6492
  15.500   1.7264   0.05028   0.04457  -0.0954   0.0192   0.6526
  16.000   1.7343   0.05489   0.04927  -0.0942   0.0183   0.6590
  16.500   1.7386   0.05999   0.05445  -0.0930   0.0172   0.6641
  17.000   1.7452   0.06488   0.05943  -0.0921   0.0167   0.6681
  17.500   1.7506   0.07001   0.06465  -0.0913   0.0161   0.6711
  18.000   1.7533   0.07549   0.07022  -0.0907   0.0154   0.6774
  18.500   1.7529   0.08140   0.07623  -0.0903   0.0146   0.6822
  19.000   1.7534   0.08727   0.08220  -0.0901   0.0141   0.6865
  20.000   1.7577   0.09870   0.09384  -0.0903   0.0134   0.6960
